───────────────────────────────────────
Parallax Propeller Chip Project Archive
───────────────────────────────────────

 Project :  "QuadRoverRadioNavigation_v1.0"

Archived :  Wednesday, June 4, 2008 at 10:46:50 AM

    Tool :  Propeller Tool version 1.1


            QuadRoverRadioNavigation_v1.0.spin
              │
              ├──InputServosRC_v1.0.spin
              │
              └──QuadRoverControl_v1.0.spin
                   │
                   └──Servo4017_v1.0.spin


────────────────────
Parallax, Inc.
www.parallax.com
support@parallax.com
USA 916.624.8333